module github.com/shenyisyn/goft-gin

go 1.14

require (
	github.com/antlr/antlr4 v0.0.0-20201020194047-0a7eaede42b0 // indirect
	github.com/gin-gonic/gin v1.7.0
	github.com/jinzhu/gorm v1.9.15
	github.com/robfig/cron/v3 v3.0.1
	github.com/shenyisyn/goft-ioc v0.5.4
	gopkg.in/yaml.v2 v2.2.8
)
